# Blender MTL File: 'axes_arrows.blend'
# Material Count: 3

newmtl blue
Ns 96.078431
Ka 0.000000 0.000000 0.000000
Kd 0.000000 0.000000 0.800000
Ks 0.500000 0.500000 0.500000
Ni 1.000000
d 1.000000
illum 2

newmtl green
Ns 96.078431
Ka 0.000000 0.000000 0.000000
Kd 0.000000 0.800000 0.000000
Ks 0.500000 0.500000 0.500000
Ni 1.000000
d 1.000000
illum 2

newmtl red
Ns 96.078431
Ka 0.000000 0.000000 0.000000
Kd 0.800000 0.000000 0.003822
Ks 0.500000 0.500000 0.500000
Ni 1.000000
d 1.000000
illum 2
