# Blender v2.72 (sub 0) OBJ File: 'player_low_poly.blend'
# www.blender.org
v 0.261787 -0.784401 0.105371
v 0.199882 -0.614129 0.089931
v 0.251754 -0.595904 0.101858
v 0.235653 -0.688416 0.037711
v 0.193008 -0.177699 0.103958
v 0.018358 -0.144002 0.148752
v 0.005509 -0.135977 0.012128
v 0.119513 -0.574322 -0.010717
v 0.116928 -0.587350 0.157608
v 0.004173 -0.724248 0.060610
v 0.118232 -1.294003 0.069784
v 0.163805 -1.391333 0.140918
v 0.164371 -1.381746 -0.053979
v 0.133370 -0.234598 -0.008454
v -0.099184 -0.238155 -0.033157
v 0.002853 -0.475552 0.132220
v 0.002882 0.079141 0.158649
v 0.068092 0.056159 -0.028624
v 0.138170 -0.268719 0.156729
v -0.246131 -0.595736 0.101857
v -0.143473 -0.281163 0.048752
v -0.158071 -1.391878 0.140963
v -0.069405 0.064062 0.004197
v -0.050421 -0.101080 0.076440
v -0.105020 -0.587950 0.161713
v -0.117919 -0.585629 -0.003471
v -0.125521 -0.327469 0.129623
v -0.158570 -1.379082 -0.053296
v -0.101690 -1.250833 0.080390
v -0.187387 -0.177628 0.103956
v 0.099218 -1.003393 0.121453
v 0.183376 -1.298267 0.055336
v -0.126548 -0.989384 0.124080
v -0.177612 -1.298267 0.055336
v -0.223194 -0.681736 0.053513
v -0.256165 -0.784232 0.105371
s off
f 6 7 24
s 1
f 1 4 3
f 4 1 2
f 5 6 19
f 7 14 15
f 19 1 3
f 3 5 19
f 6 17 24
f 15 26 25
f 8 26 15
f 27 16 6
f 6 24 30
f 32 13 11
f 29 28 34
f 11 12 31
f 33 22 29
f 16 9 19
f 27 25 16
f 15 25 27
f 2 14 5
f 19 14 2
f 7 24 23
f 7 18 6
f 20 21 35
f 10 29 34
f 34 33 25
f 25 33 29
f 32 11 10
f 32 8 9
f 4 2 3
f 6 5 7
f 5 14 7
f 19 6 16
f 15 14 8
f 9 8 14
f 19 2 1
f 30 20 27
f 9 16 25
f 15 24 7
f 8 10 26
f 9 25 10
f 30 24 15
f 27 6 30
f 12 13 32
f 12 11 13
f 22 28 29
f 22 34 28
f 32 31 12
f 34 22 33
f 10 31 9
f 14 19 9
f 21 15 27
f 3 2 5
f 20 30 21
f 21 30 15
f 7 23 18
f 24 17 23
f 6 18 17
f 17 18 23
f 35 27 36
f 21 27 35
f 36 27 20
f 35 36 20
f 26 10 34
f 26 34 25
f 10 25 29
f 8 32 10
f 31 32 9
f 10 11 31
