# Blender MTL File: 'player_low_poly.blend'
# Material Count: 1

newmtl Material.001
Ns 0.000000
Ka 0.000000 0.000000 0.000000
Kd 0.219467 0.409600 0.115249
Ks 0.000000 0.000000 0.000000
Ni 1.000000
d 1.000000
illum 2
