# Blender v2.72 (sub 0) OBJ File: 'axes_arrows.blend'
# www.blender.org
mtllib axes_arrows.mtl
v -0.000094 0.720960 -0.144834
v -0.000094 1.002026 -0.004301
v 0.099277 0.720960 -0.103673
v 0.140439 0.720960 -0.004301
v 0.099277 0.720960 0.095071
v -0.000094 0.720960 0.136232
v -0.099466 0.720960 0.095071
v -0.140627 0.720960 -0.004301
v -0.099466 0.720960 -0.103673
usemtl green
s off
f 8 2 9
f 1 2 3
f 7 2 8
f 6 2 7
f 5 2 6
f 4 2 5
f 9 2 1
f 3 2 4
f 6 1 3
f 1 7 9
f 4 5 6
f 4 6 3
f 7 8 9
f 1 6 7
v 0.001627 -0.001231 -0.075545
v 0.001627 0.746773 -0.075545
v 0.052004 -0.001231 -0.054678
v 0.052004 0.746773 -0.054678
v 0.072871 -0.001231 -0.004301
v 0.072871 0.746773 -0.004301
v 0.052004 -0.001231 0.046076
v 0.052004 0.746773 0.046076
v 0.001627 -0.001231 0.066943
v 0.001627 0.746773 0.066943
v -0.048750 -0.001231 0.046076
v -0.048750 0.746773 0.046076
v -0.069617 -0.001231 -0.004301
v -0.069617 0.746773 -0.004301
v -0.048750 -0.001231 -0.054678
v -0.048750 0.746773 -0.054678
usemtl green
s off
f 11 13 12
f 13 15 14
f 15 17 16
f 17 19 18
f 19 21 20
f 21 23 22
f 13 11 25
f 25 11 10
f 23 25 24
f 10 12 14
f 10 11 12
f 12 13 14
f 14 15 16
f 16 17 18
f 18 19 20
f 20 21 22
f 17 15 13
f 21 19 17
f 25 23 21
f 24 25 10
f 21 17 13
f 13 25 21
f 22 23 24
f 22 24 10
f 18 20 22
f 14 16 18
f 10 14 22
f 14 18 22
v 0.722967 -0.000473 -0.140725
v 1.004032 -0.000473 -0.000193
v 0.722967 -0.099845 -0.099564
v 0.722967 -0.141006 -0.000193
v 0.722967 -0.099845 0.099179
v 0.722967 -0.000473 0.140340
v 0.722967 0.098898 0.099179
v 0.722967 0.140059 -0.000193
v 0.722967 0.098898 -0.099564
usemtl red
s off
f 33 27 34
f 26 27 28
f 32 27 33
f 31 27 32
f 30 27 31
f 29 27 30
f 34 27 26
f 28 27 29
f 31 26 28
f 33 34 26
f 31 32 33
f 29 30 31
f 29 31 28
f 31 33 26
v 0.000775 -0.002194 -0.075545
v 0.748779 -0.002194 -0.075545
v 0.000775 -0.052572 -0.054678
v 0.748779 -0.052571 -0.054678
v 0.000775 -0.073438 -0.004301
v 0.748779 -0.073438 -0.004301
v 0.000775 -0.052572 0.046076
v 0.748779 -0.052571 0.046076
v 0.000775 -0.002194 0.066943
v 0.748779 -0.002194 0.066943
v 0.000775 0.048183 0.046076
v 0.748779 0.048183 0.046076
v 0.000775 0.069050 -0.004301
v 0.748779 0.069050 -0.004301
v 0.000775 0.048183 -0.054678
v 0.748779 0.048183 -0.054678
usemtl red
s off
f 36 38 37
f 38 40 39
f 40 42 41
f 42 44 43
f 44 46 45
f 46 48 47
f 38 36 50
f 50 36 35
f 48 50 49
f 35 37 39
f 35 36 37
f 37 38 39
f 39 40 41
f 41 42 43
f 43 44 45
f 45 46 47
f 42 40 38
f 46 44 42
f 50 48 46
f 49 50 35
f 46 42 38
f 38 50 46
f 47 48 49
f 47 49 35
f 43 45 47
f 39 41 43
f 35 39 47
f 39 43 47
v -0.138967 -0.000473 0.717169
v 0.001566 -0.000473 0.998234
v -0.097806 -0.099845 0.717169
v 0.001566 -0.141006 0.717169
v 0.100937 -0.099845 0.717169
v 0.142098 -0.000473 0.717169
v 0.100937 0.098898 0.717169
v 0.001566 0.140059 0.717169
v -0.097806 0.098898 0.717169
usemtl blue
s off
f 58 52 59
f 51 52 53
f 57 52 58
f 56 52 57
f 55 52 56
f 54 52 55
f 59 52 51
f 53 52 54
f 59 51 53
f 56 57 58
f 54 55 56
f 54 56 53
f 56 58 59
f 56 59 53
v -0.069678 -0.002194 -0.005023
v -0.069678 -0.002194 0.742981
v -0.048811 -0.052571 -0.005023
v -0.048811 -0.052571 0.742981
v 0.001566 -0.073438 -0.005023
v 0.001566 -0.073438 0.742981
v 0.051943 -0.052571 -0.005023
v 0.051943 -0.052571 0.742981
v 0.072810 -0.002194 -0.005023
v 0.072810 -0.002194 0.742981
v 0.051943 0.048183 -0.005023
v 0.051943 0.048183 0.742981
v 0.001566 0.069050 -0.005023
v 0.001566 0.069050 0.742981
v -0.048811 0.048183 -0.005023
v -0.048811 0.048183 0.742981
usemtl blue
s off
f 61 63 62
f 63 65 64
f 65 67 66
f 67 69 68
f 69 71 70
f 71 73 72
f 63 61 75
f 75 61 60
f 73 75 74
f 68 60 62
f 60 61 62
f 62 63 64
f 64 65 66
f 66 67 68
f 68 69 70
f 70 71 72
f 67 65 63
f 71 69 67
f 75 73 71
f 74 75 60
f 71 67 63
f 63 75 71
f 72 73 74
f 72 74 60
f 72 60 70
f 64 66 68
f 64 68 62
f 60 68 70
